if else pipes | daniel klotz |
…
## [1] "foo"

A nice way to use a vector of inputs is provided by the case_when function
from dplyr together with mutate or transmute:

library(dplyr,  quietly = TRUE, warn.conflicts = FALSE)
library(tibble, quietly = TRUE, warn.conflicts = FALSE)
runif(100) %>% 
  magrittr::is_greater_than(0.5) %>% 
  tibble::tibble(a = .) %>% 
  dplyr::transmute(., foobar = case_when(a <= 0.5 ~ "fu", a >  0.5 ~ "bar"))

## # A tibble: 100 x 1
##    foobar
##    <chr> 
##  1 bar   
##  2 fu    
##  3 fu    
##  4 fu    
##  5 fu    
##  6 fu    
##  7 fu    
##  8 fu    
##  9 bar   
## 10 bar   
## # … with 90 more rows
…
